<?xml version="1.0" encoding="UTF-8" standalone="no"?>
<!-- Created with Inkscape (http://www.inkscape.org/) -->

<svg
   width="73.538002mm"
   height="159.01601mm"
   viewBox="0 0 73.538 159.01601"
   version="1.1"
   id="svg1"
   xml:space="preserve"
   inkscape:version="1.3.2 (091e20ef0f, 2023-11-25)"
   sodipodi:docname="Pixel3A.svg"
   inkscape:export-filename="Pixel3A.png"
   inkscape:export-xdpi="96"
   inkscape:export-ydpi="96"
   xmlns:inkscape="http://www.inkscape.org/namespaces/inkscape"
   xmlns:sodipodi="http://sodipodi.sourceforge.net/DTD/sodipodi-0.dtd"
   xmlns:xlink="http://www.w3.org/1999/xlink"
   xmlns="http://www.w3.org/2000/svg"
   xmlns:svg="http://www.w3.org/2000/svg"><sodipodi:namedview
     id="namedview1"
     pagecolor="#ffffff"
     bordercolor="#000000"
     borderopacity="0.25"
     inkscape:showpageshadow="2"
     inkscape:pageopacity="0.0"
     inkscape:pagecheckerboard="0"
     inkscape:deskcolor="#d1d1d1"
     inkscape:document-units="mm"
     inkscape:zoom="2.3133353"
     inkscape:cx="327.23315"
     inkscape:cy="103.74631"
     inkscape:window-width="3440"
     inkscape:window-height="1370"
     inkscape:window-x="0"
     inkscape:window-y="0"
     inkscape:window-maximized="1"
     inkscape:current-layer="layer1"
     showguides="true"><sodipodi:guide
       position="41.674315,-34.720503"
       orientation="0,-1"
       id="guide8"
       inkscape:locked="false" /><sodipodi:guide
       position="49.404707,-38.498511"
       orientation="0,-1"
       id="guide9"
       inkscape:locked="false" /><sodipodi:guide
       position="5.3634593,144.68735"
       orientation="1,0"
       id="guide10"
       inkscape:locked="false" /><sodipodi:guide
       position="20.561064,142.96195"
       orientation="0,-1"
       id="guide12"
       inkscape:locked="false" /><sodipodi:guide
       position="80.225852,146.91905"
       orientation="0,-1"
       id="guide28"
       inkscape:locked="false" /><sodipodi:guide
       position="73.87459,154.47035"
       orientation="0,-1"
       id="guide32"
       inkscape:locked="false" /><sodipodi:guide
       position="70.133595,-4.400299"
       orientation="1,0"
       id="guide1"
       inkscape:locked="false" /><sodipodi:guide
       position="20.691835,95.242964"
       orientation="1,0"
       id="guide2"
       inkscape:locked="false" /><sodipodi:guide
       position="126.13066,7.700384"
       orientation="0,-1"
       id="guide3"
       inkscape:locked="false" /></sodipodi:namedview><defs
     id="defs1"><linearGradient
       id="linearGradient3"><stop
         style="stop-color:#8e3384;stop-opacity:1;"
         offset="0"
         id="stop2" /><stop
         style="stop-color:#da4b2f;stop-opacity:1;"
         offset="1"
         id="stop3" /></linearGradient><linearGradient
       inkscape:collect="always"
       xlink:href="#linearGradient3"
       id="linearGradient33"
       x1="60.394356"
       y1="133.19742"
       x2="113.85062"
       y2="78.832199"
       gradientUnits="userSpaceOnUse"
       gradientTransform="matrix(0.99082522,0,0,0.96853884,15.545594,-4.4585469)" /><linearGradient
       id="linearGradient32-1"><stop
         style="stop-color:#8e3384;stop-opacity:0.74901962;"
         offset="0"
         id="stop32" /><stop
         style="stop-color:#da4b2f;stop-opacity:1;"
         offset="1"
         id="stop35" /></linearGradient><linearGradient
       inkscape:collect="always"
       xlink:href="#linearGradient32-1"
       id="linearGradient16"
       x1="60.394356"
       y1="133.19742"
       x2="113.85062"
       y2="78.832199"
       gradientUnits="userSpaceOnUse"
       gradientTransform="matrix(0.99082522,0,0,0.96853884,15.545594,-4.4585469)" /><filter
       style="color-interpolation-filters:sRGB"
       inkscape:label="Drop Shadow"
       id="filter7"
       x="-0.076086586"
       y="-0.027325861"
       width="1.1349499"
       height="1.0584154"><feFlood
         result="flood"
         in="SourceGraphic"
         flood-opacity="1.000000"
         flood-color="rgb(204,204,204)"
         id="feFlood6" /><feGaussianBlur
         result="blur"
         in="SourceGraphic"
         stdDeviation="0.700000"
         id="feGaussianBlur6" /><feOffset
         result="offset"
         in="blur"
         dx="-0.600000"
         dy="0.400000"
         id="feOffset6" /><feComposite
         result="comp1"
         operator="out"
         in="flood"
         in2="offset"
         id="feComposite6" /><feComposite
         result="fbSourceGraphic"
         operator="atop"
         in="comp1"
         in2="SourceGraphic"
         id="feComposite7" /><feColorMatrix
         result="fbSourceGraphicAlpha"
         in="fbSourceGraphic"
         values="0 0 0 -1 0 0 0 0 -1 0 0 0 0 -1 0 0 0 0 1 0"
         id="feColorMatrix5" /><feFlood
         id="feFlood5"
         result="flood"
         in="fbSourceGraphic"
         flood-opacity="0.129412"
         flood-color="rgb(25,25,25)" /><feGaussianBlur
         id="feGaussianBlur5"
         result="blur"
         in="fbSourceGraphic"
         stdDeviation="1.700000" /><feOffset
         id="feOffset5"
         result="offset"
         in="blur"
         dx="-1.100000"
         dy="0.400000" /><feComposite
         id="feComposite5"
         result="comp1"
         operator="out"
         in="flood"
         in2="offset" /><feComposite
         id="feComposite8"
         result="comp2"
         operator="atop"
         in="comp1"
         in2="fbSourceGraphic" /></filter><filter
       inkscape:collect="always"
       style="color-interpolation-filters:sRGB"
       id="filter8"
       x="-0.011859993"
       y="-0.0052575015"
       width="1.02372"
       height="1.010515"><feGaussianBlur
         inkscape:collect="always"
         stdDeviation="0.45610757"
         id="feGaussianBlur8" /></filter><filter
       style="color-interpolation-filters:sRGB"
       inkscape:label="Drop Shadow"
       id="filter28"
       x="-0.10439309"
       y="-0.70685321"
       width="1.1813143"
       height="2.5820048"><feFlood
         result="flood"
         in="SourceGraphic"
         flood-opacity="1.000000"
         flood-color="rgb(190,190,190)"
         id="feFlood27" /><feGaussianBlur
         result="blur"
         in="SourceGraphic"
         stdDeviation="0.700000"
         id="feGaussianBlur27" /><feOffset
         result="offset"
         in="blur"
         dx="-0.600000"
         dy="0.400000"
         id="feOffset27" /><feComposite
         result="comp1"
         operator="out"
         in="flood"
         in2="offset"
         id="feComposite27" /><feComposite
         result="comp2"
         operator="atop"
         in="comp1"
         in2="SourceGraphic"
         id="feComposite28" /></filter><filter
       style="color-interpolation-filters:sRGB"
       inkscape:label="Drop Shadow"
       id="filter32"
       x="-0.10668256"
       y="-0.73054704"
       width="1.1858932"
       height="2.626736"><feFlood
         result="flood"
         in="SourceGraphic"
         flood-opacity="1.000000"
         flood-color="rgb(207,207,207)"
         id="feFlood31" /><feGaussianBlur
         result="blur"
         in="SourceGraphic"
         stdDeviation="0.700000"
         id="feGaussianBlur31" /><feOffset
         result="offset"
         in="blur"
         dx="-0.600000"
         dy="0.400000"
         id="feOffset31" /><feComposite
         result="comp1"
         operator="out"
         in="flood"
         in2="offset"
         id="feComposite31" /><feComposite
         result="comp2"
         operator="atop"
         in="comp1"
         in2="SourceGraphic"
         id="feComposite32" /></filter><filter
       style="color-interpolation-filters:sRGB"
       inkscape:label="Drop Shadow"
       id="filter7-7"
       x="-0.075539902"
       y="-0.027325833"
       width="1.1339802"
       height="1.0584153"><feFlood
         result="flood"
         in="SourceGraphic"
         flood-opacity="1.000000"
         flood-color="rgb(204,204,204)"
         id="feFlood6-5" /><feGaussianBlur
         result="blur"
         in="SourceGraphic"
         stdDeviation="0.700000"
         id="feGaussianBlur6-3" /><feOffset
         result="offset"
         in="blur"
         dx="-0.600000"
         dy="0.400000"
         id="feOffset6-5" /><feComposite
         result="comp1"
         operator="out"
         in="flood"
         in2="offset"
         id="feComposite6-6" /><feComposite
         result="fbSourceGraphic"
         operator="atop"
         in="comp1"
         in2="SourceGraphic"
         id="feComposite7-2" /><feColorMatrix
         result="fbSourceGraphicAlpha"
         in="fbSourceGraphic"
         values="0 0 0 -1 0 0 0 0 -1 0 0 0 0 -1 0 0 0 0 1 0"
         id="feColorMatrix5-9" /><feFlood
         id="feFlood5-1"
         result="flood"
         in="fbSourceGraphic"
         flood-opacity="0.129412"
         flood-color="rgb(25,25,25)" /><feGaussianBlur
         id="feGaussianBlur5-2"
         result="blur"
         in="fbSourceGraphic"
         stdDeviation="1.700000" /><feOffset
         id="feOffset5-7"
         result="offset"
         in="blur"
         dx="-1.100000"
         dy="0.400000" /><feComposite
         id="feComposite5-0"
         result="comp1"
         operator="out"
         in="flood"
         in2="offset" /><feComposite
         id="feComposite8-9"
         result="comp2"
         operator="atop"
         in="comp1"
         in2="fbSourceGraphic" /></filter><filter
       inkscape:collect="always"
       style="color-interpolation-filters:sRGB"
       id="filter1"
       x="-0.033842213"
       y="-0.015789439"
       width="1.0676844"
       height="1.03158"><feGaussianBlur
         inkscape:collect="always"
         stdDeviation="1.3795141"
         id="feGaussianBlur1" /></filter></defs><g
     inkscape:label="Layer 1"
     inkscape:groupmode="layer"
     id="layer1"
     transform="translate(-54.62479,-31.255117)"><g
       id="g3"
       transform="matrix(0.70866611,0,0,0.70866611,16.207979,9.1401154)"><path
         id="path3-6"
         style="display:inline;opacity:0.569;mix-blend-mode:luminosity;fill:#000000;fill-opacity:0.68;stroke:#c3c3c3;stroke-width:0.1;stroke-dasharray:none;stroke-opacity:1;filter:url(#filter1)"
         inkscape:label="Shadow"
         d="m 68.000493,39.044122 -0.540535,0.112138 c -4.207612,0.872898 -10.121594,5.213318 -10.472229,10.804508 -0.07404,0.566746 0.01654,10.778423 0.01654,95.464452 0,84.68599 0.0081,94.3551 0.08217,94.92185 0.399811,3.06039 1.752416,5.78935 3.904154,7.87808 1.959323,1.90194 4.350062,3.11364 7.069336,3.58221 v -5.2e-4 c 0.537586,0.0927 2.093933,0.0968 37.574451,0.0868 l 37.01325,-0.0103 0.73432,-0.0171 c 2.56418,-0.0608 4.15418,-0.86071 5.74073,-1.83245 1.06379,-0.65156 2.44507,-1.87804 3.27939,-2.91248 0.71615,-0.88792 0.94579,-1.24778 1.48828,-2.33216 0.78721,-1.57356 1.04745,-2.51139 1.31878,-4.747 0.0894,-0.73586 0.096,-4.50755 0.12248,-74.11072 0.005,-12.78068 0.0157,-7.12451 0.0207,-16.03933 h 0.16174 c 0.32002,0 0.38215,-0.0379 0.32195,-0.19637 -0.0599,-0.15755 -0.0242,-0.23909 0.0858,-0.19689 0.0511,0.0196 0.0797,-0.005 0.0827,-0.0692 0.002,-0.0547 0.0157,-0.0708 0.03,-0.0357 0.0143,0.0351 0.0606,0.0508 0.10283,0.0346 0.0664,-0.0255 0.077,-1.85475 0.077,-13.57178 0,-12.52583 -0.007,-13.54949 -0.0889,-13.63999 -0.061,-0.0675 -0.16488,-0.0981 -0.33435,-0.0987 -0.13524,-4e-4 -0.28866,-0.0272 -0.32556,-0.0506 -0.0786,-0.002 -0.0581,-0.001 -0.0775,-0.001 0.006,-3.21749 0.0108,-12.72408 0.0186,-14.18156 0.0943,-0.023 0.1941,-0.0598 0.32607,-0.092 0.18168,-0.0446 0.34015,-0.12403 0.41445,-0.20722 l 0.12041,-0.13488 V 94.338421 l -0.15607,-0.156579 c -0.10652,-0.10652 -0.21,-0.15658 -0.32452,-0.15658 -0.0925,0 -0.21297,-0.02371 -0.26717,-0.05271 -0.0207,-0.01106 -0.0374,-0.01788 -0.0522,-0.02015 -0.017,-0.0026 -0.0306,0.0034 -0.0434,0.01499 10e-4,-0.01423 10e-4,-1.486392 0.002,-1.488281 0.053,-0.09289 0.0539,-4.389332 0.0667,-20.987866 0.0144,-18.670355 0.0968,-19.418646 0.0434,-21.511865 -0.10643,-4.168882 -4.77255,-9.646157 -10.44587,-10.823112 l -0.54054,-0.112138 h -38.27466 z" /><rect
         style="display:inline;fill:url(#linearGradient33);fill-opacity:1;stroke:url(#linearGradient16);stroke-width:0.243924;stroke-dasharray:none"
         id="rect15"
         width="88.811882"
         height="182.24269"
         x="59.59882"
         y="46.341667"
         inkscape:label="Wallpaper" /><path
         style="display:inline;fill:#f2f2f2;stroke:#848484;stroke-width:0.0999998;stroke-dasharray:none;stroke-opacity:1;filter:url(#filter7)"
         d="m 65.772252,243.86339 c -2.72226,-0.46805 -5.115905,-1.67817 -7.077379,-3.57803 -2.1541,-2.08643 -3.507922,-4.81248 -3.908172,-7.86951 -0.07412,-0.56613 -0.08252,-10.22446 -0.08252,-94.81752 0,-84.593059 -0.09035,-94.793299 -0.01623,-95.359423 0.35102,-5.585055 6.271545,-9.920511 10.483775,-10.792451 l 0.540884,-0.111965 h 38.3167 38.31669 l 0.54088,0.111965 c 5.67956,1.175664 10.3508,6.846265 10.45735,11.010572 0.0535,2.090923 -0.0289,2.639041 -0.0433,21.288909 -0.0128,16.580322 -0.0137,20.871557 -0.0668,20.964342 -0.0534,0.09311 -0.0725,14.90662 -0.0949,73.371691 -0.0265,69.5268 -0.0327,73.29443 -0.12223,74.02949 -0.27163,2.23315 -0.5325,3.16981 -1.32057,4.74164 -0.54309,1.08318 -0.77295,1.44258 -1.48988,2.32952 -0.83524,1.03332 -2.21764,2.25853 -3.2826,2.90937 -1.58829,0.97067 -3.18001,1.76963 -5.74701,1.83033 l -0.73529,0.0174 -37.05401,0.0101 c -35.519496,0.01 -37.077253,0.006 -37.615428,-0.0866 z m 77.304958,-3.85099 c 3.25893,-0.76047 4.98495,-3.20742 6.13165,-5.82501 l 0.29299,-0.6688 0.24686,-96.05379 -0.0349,-94.666342 -0.14487,-0.668794 c -0.60742,-2.804157 -3.98767,-6.527303 -7.47864,-7.281915 l -0.6695,-0.14472 -37.53113,-0.03484 -37.112191,0.03484 -2.292919,0.70209 c -1.511909,0.462945 -4.567355,3.020111 -5.50062,5.638667 l -0.232153,0.651376 -0.244386,95.868168 -0.02469,94.94533 0.564546,1.80189 c 0.159821,0.51011 1.660804,3.40351 3.668464,4.70007 0.963142,0.62199 1.402834,0.80801 1.906418,1.01285 0.09593,0.039 17.222506,0.73304 38.616781,0.73004 l 37.22,-0.10453 z"
         id="path3"
         transform="matrix(0.99890544,0,0,1.0011005,0.0573813,0.16753639)"
         sodipodi:nodetypes="cssscscccssscccsssscccccscccsscccsscccsssccc" /><path
         style="display:inline;mix-blend-mode:normal;fill:#f2f2f2;stroke-width:0.979873;filter:url(#filter8)"
         d="m 67.029839,242.2487 c -2.388377,-0.1531 -4.489048,-1.09028 -6.174956,-2.75487 -1.612167,-1.59176 -2.611339,-3.61697 -2.911023,-5.90033 -0.104218,-0.79408 -0.104218,-190.075972 0,-190.870042 0.281342,-2.143599 1.176655,-4.057835 2.619632,-5.600933 1.549095,-1.65658 3.52002,-2.683276 5.742163,-2.991217 0.770943,-0.106834 74.647525,-0.106834 75.418455,0 4.38081,0.607084 7.77099,4.090657 8.3618,8.59215 0.10422,0.79407 0.10422,190.075962 0,190.870042 -0.28134,2.1436 -1.17665,4.05784 -2.61963,5.60092 -1.49659,1.60043 -3.26541,2.55213 -5.5153,2.96742 -0.45217,0.0834 -3.03184,0.0902 -37.57401,0.0967 -20.398669,0.004 -37.204881,-5.4e-4 -37.347131,-0.01 z m 73.007221,-1.52197 c 1.56598,-0.28908 2.96737,-0.87285 4.1441,-1.72626 0.64045,-0.46448 1.83566,-1.6926 2.2877,-2.35072 0.87844,-1.2789 1.49485,-2.90444 1.70313,-4.49136 0.10422,-0.79404 0.10422,-186.780553 0,-187.574601 -0.20828,-1.586921 -0.82469,-3.212465 -1.70313,-4.491373 -0.45204,-0.6581 -1.64725,-1.886239 -2.2877,-2.350722 -1.24462,-0.902648 -2.82659,-1.536037 -4.37096,-1.750055 -0.77077,-0.106811 -70.716408,-0.106811 -71.487178,0 -1.544375,0.214018 -3.126338,0.847407 -4.370959,1.750055 -0.640458,0.464483 -1.835669,1.692622 -2.2877,2.350722 -0.887351,1.29187 -1.491112,2.885622 -1.703542,4.496854 -0.103496,0.784981 -0.103496,186.77866 0,187.56363 0.21243,1.61123 0.816191,3.20499 1.703542,4.49685 0.452031,0.65812 1.647242,1.88624 2.2877,2.35072 1.461852,1.06019 3.182018,1.67549 5.069278,1.81329 0.128025,0.009 16.049699,0.0137 35.381499,0.01 32.72338,-0.007 35.18222,-0.0134 35.63422,-0.0969 z"
         id="path2"
         transform="matrix(1.0227072,0,0,1.0023321,-2.6757626,-0.57537232)" /><path
         d="m 153.00188,114.55712 v 27.82714 h 0.20981 c 0.32002,0 0.38214,-0.0379 0.32194,-0.19637 -0.0599,-0.15754 -0.0242,-0.23909 0.0858,-0.19689 0.0511,0.0196 0.0797,-0.005 0.0827,-0.0693 0.002,-0.0547 0.0157,-0.0707 0.03,-0.0356 0.0143,0.0351 0.0606,0.0508 0.10284,0.0346 0.0664,-0.0255 0.077,-1.85474 0.077,-13.57178 0,-12.52586 -0.007,-13.5495 -0.0889,-13.64 -0.061,-0.0675 -0.16488,-0.0981 -0.33435,-0.0987 -0.13524,-4e-4 -0.28866,-0.0274 -0.32556,-0.0508 -0.16355,-0.004 -0.15163,-0.002 -0.16128,-0.002 z"
         style="display:inline;fill:#999999;stroke:#757575;stroke-width:0.1;stroke-dasharray:none;stroke-opacity:1"
         id="path8"
         sodipodi:nodetypes="ccscscssscccc" /><path
         d="m 153.16518,86.444519 c -0.0443,-0.0068 -0.0676,0.02989 -0.10439,0.135392 -0.0281,0.08073 -0.0112,5.456602 -0.0191,13.810929 0.11364,-0.0189 0.22739,-0.0665 0.38857,-0.10582 0.18167,-0.0446 0.34014,-0.12404 0.41444,-0.20722 l 0.12041,-0.13488 V 86.830542 l -0.15606,-0.156579 c -0.10652,-0.10652 -0.21001,-0.15658 -0.32453,-0.15658 -0.0925,0 -0.21297,-0.02371 -0.26717,-0.05271 -0.0207,-0.01106 -0.0374,-0.01787 -0.0522,-0.02015 z"
         style="display:inline;fill:#999999;stroke:#757575;stroke-width:0.1;stroke-dasharray:none;stroke-opacity:1"
         id="path7"
         sodipodi:nodetypes="scccccccssss" /><path
         style="display:inline;fill:#ececec;stroke:#e2e2e2;stroke-width:0.1;stroke-dasharray:none;stroke-opacity:1"
         d="m 66.839368,241.08243 c -4.277211,-0.65009 -7.771306,-3.99685 -8.425446,-8.48103 -0.0747,-0.51208 -0.08297,-9.93767 -0.08297,-94.60241 0,-84.664741 0.0083,-94.090332 0.08297,-94.60241 0.643931,-4.414195 4.071631,-7.841895 8.485826,-8.485827 0.870751,-0.127019 73.451752,-0.125783 74.314502,0 4.41156,0.643547 7.84217,4.073551 8.48583,8.485827 0.0747,0.512078 0.083,9.937669 0.083,94.60241 0,84.66474 -0.008,94.09033 -0.083,94.60241 -0.64393,4.4142 -4.07163,7.8419 -8.48583,8.48583 -0.5097,0.0744 -4.37323,0.0824 -37.21763,0.0777 -31.654594,-0.005 -36.718165,-0.0158 -37.157252,-0.0825 z m 81.282892,-16.94141 c -0.0327,-2.49168 0.0315,-173.055237 0.0319,-174.467836 -0.0156,-1.244531 -0.81452,-3.131198 -3.21394,-3.161635 -2.3846,-0.03025 -78.965644,-0.05519 -81.819928,0 -1.916205,-0.0066 -3.133976,1.687223 -3.133912,3.087739 6.4e-5,1.408232 -0.01103,173.274302 -0.01408,174.609472 0.01252,1.92083 1.465897,3.76113 3.397525,3.75974 1.93322,-0.001 76.980775,-0.01 80.289385,-0.009 2.04993,1.9e-4 4.49931,-1.05318 4.46305,-3.8182 z"
         id="path1"
         sodipodi:nodetypes="csscscsscsccscscscsss" /><g
         id="g15"
         transform="matrix(0.73492105,0,0,0.73492105,4.6208622,-0.69062271)"
         style="display:inline;stroke:#bfbfbf;stroke-width:0.136069;stroke-dasharray:none;stroke-opacity:1"><ellipse
           style="display:inline;fill:#cccccc;stroke:#bfbfbf;stroke-width:0.136069;stroke-dasharray:none;stroke-opacity:1"
           id="path14"
           cx="96.58268"
           cy="55.273781"
           rx="2.1535594"
           ry="2.1223416" /><circle
           style="display:inline;fill:#666666;stroke:#bfbfbf;stroke-width:0.136069;stroke-dasharray:none;stroke-opacity:1"
           id="path15"
           cx="96.596855"
           cy="55.309151"
           r="1.2885704" /></g><path
         style="display:inline;fill:#666666;stroke-width:0.249"
         d="m 153.20749,100.34932 -0.31044,0.0525 m -0.0143,14.15911 0.005,0.005"
         id="path5" /><rect
         style="display:inline;fill:#666666;stroke-width:0.249"
         id="rect6"
         width="0.0095524695"
         height="0.25312492"
         x="144.6084"
         y="113.51898" /><path
         id="path79"
         style="display:inline;fill:#e6e6e6;stroke:#d6d6d6;stroke-width:0.1;stroke-dasharray:none;stroke-opacity:1;filter:url(#filter32)"
         d="m 94.490873,38.787997 a 1.3105303,1.2018018 0 0 0 -0.01292,0.0016 h -0.0155 v 0.0021 a 1.3105303,1.2018018 0 0 0 -1.190108,1.184424 1.3105303,1.2018018 0 0 0 1.190108,1.183907 v 0.0047 h 19.433957 v -0.0041 a 1.341121,1.1967984 0 0 0 1.21646,-1.179773 1.341121,1.1967984 0 0 0 -1.21646,-1.186491 v -0.0047 H 94.490873 Z" /></g></g></svg>
